{
  "data": {
    "items": [
      {
        "name": "더한인베스트먼트(주)",
        "image": "../../images/cts_tab/profile/thehan_logo.png",
        "description": "국내 증시와 해외 원자재 시장 분석을 우선적으로 하여, 전략적인 관점으로 코스피 우량주를 인덱스 매매 합니다.",
        "port": 2,
        "tags": ['private']
      },
      {
        "name": "(주)링크트레이딩",
        "image": "https://cdn.wlfa.us/cs/20200414190222/%EB%A7%81%ED%81%AC%ED%8A%B8%EB%A0%88%EC%9D%B4%EB%94%A9_%EB%A1%9C%EA%B3%A012.png",
        "description": "국내외 지수와 증권시황을 바탕으로 실시간 대응합니다.",
        "port": 2,
        "tags": ['public']
      },
      {
        "name": "(주)WK홀딩스",
        "image": "../../images/cts_tab/profile/wk_logo.png",
        "description": "성장 및 추세 추종(Growth & Trend Following) 전략, 자기자본이익률(ROE)과 주가이익증가율(PEG)가 높은 종목에 집중하고자 합니다.",
        "port": 2,
        "tags": ['private']
      },
      {
        "name": "(주)JS투자전문가그룹",
        "image": "https://cdn.wlfa.us/cs/20200106141329/%EC%A0%9C%EC%9D%B4%EC%97%90%EC%8A%A4-%EB%A1%9C%EA%B3%A0.png",
        "description": "시대의 흐름에 맞추어 미리 준비해서 수익내는 안정적 고수익 전략을 토대로 이슈 및 리스크의 최소화로 수익 추구!",
        "port": 2,
        "tags": ['private']
      },
      {
        "name": "(주)대천인베스트먼트",
        "image": "https://cdn.wlfa.us/cs/20200114133229/%EB%A1%9C%EA%B3%A0png1.png",
        "description": "IMF에도 상한가 가는 종목은 있었습니다. 현재 시장에 적합한 선행성 종목 공략을 통해 장세와 관계 없는 안정적인 수익을 지향합니다.",
        "port": 2,
        "tags": ['public']
      }
    ]
  }
}
